{
   "time" : {
      "to" : "now",
      "from" : "now-6h"
   },
   "rows" : [
      {
         "titleSize" : "h6",
         "repeatRowId" : null,
         "repeatIteration" : null,
         "height" : "150px",
         "showTitle" : true,
         "collapse" : false,
         "panels" : [
            {
               "tableColumn" : "",
               "maxDataPoints" : 100,
               "valueFontSize" : "80%",
               "postfix" : " MB/s",
               "sparkline" : {
                  "fillColor" : "rgba(31, 118, 189, 0.18)",
                  "show" : true,
                  "lineColor" : "rgb(31, 120, 193)",
                  "full" : false
               },
               "id" : 12,
               "links" : [],
               "mappingTypes" : [
                  {
                     "value" : 1,
                     "name" : "value to text"
                  },
                  {
                     "value" : 2,
                     "name" : "range to text"
                  }
               ],
               "rangeMaps" : [
                  {
                     "to" : "null",
                     "text" : "N/A",
                     "from" : "null"
                  }
               ],
               "prefixFontSize" : "50%",
               "interval" : null,
               "type" : "singlestat",
               "title" : "Ethernet Send MB/s",
               "span" : 2,
               "valueName" : "avg",
               "colorBackground" : false,
               "thresholds" : "",
               "colors" : [
                  "rgba(71, 212, 59, 0.4)",
                  "rgba(245, 150, 40, 0.73)",
                  "rgba(225, 40, 40, 0.59)"
               ],
               "valueMaps" : [
                  {
                     "value" : "null",
                     "text" : "N/A",
                     "op" : "="
                  }
               ],
               "error" : false,
               "postfixFontSize" : "50%",
               "targets" : [
                  {
                     "target" : "sumSeries(highestAverage(netapp.perf.$Group.$Cluster.node.$Node.eth_port.$Port.tx_bytes_per_sec, $TopResources))",
                     "refId" : "A"
                  }
               ],
               "cacheTimeout" : null,
               "datasource" : null,
               "mappingType" : 1,
               "gauge" : {
                  "show" : false,
                  "minValue" : 0,
                  "thresholdMarkers" : true,
                  "thresholdLabels" : false,
                  "maxValue" : 100
               },
               "format" : "none",
               "editable" : true,
               "nullText" : null,
               "colorValue" : false,
               "nullPointMode" : "connected",
               "prefix" : ""
            },
            {
               "tableColumn" : "",
               "maxDataPoints" : 100,
               "valueFontSize" : "100%",
               "postfix" : "%",
               "sparkline" : {
                  "fillColor" : "rgba(31, 118, 189, 0.18)",
                  "show" : false,
                  "lineColor" : "rgb(31, 120, 193)",
                  "full" : false
               },
               "id" : 11,
               "links" : [],
               "mappingTypes" : [
                  {
                     "value" : 1,
                     "name" : "value to text"
                  },
                  {
                     "value" : 2,
                     "name" : "range to text"
                  }
               ],
               "rangeMaps" : [
                  {
                     "to" : "null",
                     "text" : "N/A",
                     "from" : "null"
                  }
               ],
               "prefixFontSize" : "50%",
               "interval" : null,
               "type" : "singlestat",
               "title" : "Busiest Avg Port Utilization",
               "span" : 2,
               "valueName" : "avg",
               "colorBackground" : false,
               "thresholds" : "60,80",
               "colors" : [
                  "rgba(71, 212, 59, 0.4)",
                  "rgba(245, 150, 40, 0.73)",
                  "rgba(225, 40, 40, 0.59)"
               ],
               "valueMaps" : [
                  {
                     "value" : "null",
                     "text" : "N/A",
                     "op" : "="
                  }
               ],
               "error" : false,
               "postfixFontSize" : "50%",
               "targets" : [
                  {
                     "target" : "highestAverage(netapp.perf.$Group.$Cluster.node.$Node.eth_port.$Port.link_pct_util, 1)",
                     "textEditor" : false,
                     "refId" : "A"
                  }
               ],
               "cacheTimeout" : null,
               "datasource" : null,
               "mappingType" : 1,
               "gauge" : {
                  "show" : true,
                  "minValue" : 0,
                  "thresholdMarkers" : true,
                  "thresholdLabels" : false,
                  "maxValue" : 100
               },
               "format" : "none",
               "editable" : true,
               "nullText" : null,
               "colorValue" : true,
               "nullPointMode" : "connected",
               "prefix" : ""
            },
            {
               "tableColumn" : "",
               "maxDataPoints" : 100,
               "valueFontSize" : "80%",
               "postfix" : " MB/s",
               "sparkline" : {
                  "fillColor" : "rgba(31, 118, 189, 0.18)",
                  "show" : true,
                  "lineColor" : "rgb(31, 120, 193)",
                  "full" : false
               },
               "id" : 13,
               "links" : [],
               "mappingTypes" : [
                  {
                     "value" : 1,
                     "name" : "value to text"
                  },
                  {
                     "value" : 2,
                     "name" : "range to text"
                  }
               ],
               "rangeMaps" : [
                  {
                     "to" : "null",
                     "text" : "N/A",
                     "from" : "null"
                  }
               ],
               "prefixFontSize" : "50%",
               "interval" : null,
               "type" : "singlestat",
               "title" : "Ethernet Receive MB/s",
               "span" : 2,
               "valueName" : "avg",
               "colorBackground" : false,
               "thresholds" : "",
               "colors" : [
                  "rgba(71, 212, 59, 0.4)",
                  "rgba(245, 150, 40, 0.73)",
                  "rgba(225, 40, 40, 0.59)"
               ],
               "valueMaps" : [
                  {
                     "value" : "null",
                     "text" : "N/A",
                     "op" : "="
                  }
               ],
               "error" : false,
               "postfixFontSize" : "50%",
               "targets" : [
                  {
                     "target" : "sumSeries(highestAverage(netapp.perf.$Group.$Cluster.node.$Node.eth_port.$Port.rx_bytes_per_sec, $TopResources))",
                     "refId" : "A"
                  }
               ],
               "cacheTimeout" : null,
               "datasource" : null,
               "mappingType" : 1,
               "gauge" : {
                  "show" : false,
                  "minValue" : 0,
                  "thresholdMarkers" : true,
                  "thresholdLabels" : false,
                  "maxValue" : 100
               },
               "format" : "none",
               "editable" : true,
               "nullText" : null,
               "colorValue" : false,
               "nullPointMode" : "connected",
               "prefix" : ""
            },
            {
               "tableColumn" : "",
               "maxDataPoints" : 100,
               "valueFontSize" : "80%",
               "postfix" : " MB/s",
               "sparkline" : {
                  "fillColor" : "rgba(31, 118, 189, 0.18)",
                  "show" : true,
                  "lineColor" : "rgb(31, 120, 193)",
                  "full" : false
               },
               "id" : 15,
               "links" : [],
               "mappingTypes" : [
                  {
                     "value" : 1,
                     "name" : "value to text"
                  },
                  {
                     "value" : 2,
                     "name" : "range to text"
                  }
               ],
               "rangeMaps" : [
                  {
                     "to" : "null",
                     "text" : "N/A",
                     "from" : "null"
                  }
               ],
               "prefixFontSize" : "50%",
               "interval" : null,
               "type" : "singlestat",
               "title" : "FCP Send MB/s",
               "span" : 3,
               "valueName" : "avg",
               "colorBackground" : false,
               "thresholds" : "",
               "colors" : [
                  "rgba(71, 212, 59, 0.4)",
                  "rgba(245, 150, 40, 0.73)",
                  "rgba(225, 40, 40, 0.59)"
               ],
               "valueMaps" : [
                  {
                     "value" : "null",
                     "text" : "N/A",
                     "op" : "="
                  }
               ],
               "error" : false,
               "postfixFontSize" : "50%",
               "targets" : [
                  {
                     "target" : "sumSeries(highestAverage(netapp.perf.$Group.$Cluster.node.$Node.fcp_port.$Port.read_data, $TopResources))",
                     "refId" : "A"
                  }
               ],
               "cacheTimeout" : null,
               "datasource" : null,
               "mappingType" : 1,
               "gauge" : {
                  "show" : false,
                  "minValue" : 0,
                  "thresholdMarkers" : true,
                  "thresholdLabels" : false,
                  "maxValue" : 100
               },
               "format" : "none",
               "editable" : true,
               "nullText" : null,
               "colorValue" : false,
               "nullPointMode" : "connected",
               "prefix" : ""
            },
            {
               "tableColumn" : "",
               "maxDataPoints" : 100,
               "valueFontSize" : "80%",
               "postfix" : " MB/s",
               "sparkline" : {
                  "fillColor" : "rgba(31, 118, 189, 0.18)",
                  "show" : true,
                  "lineColor" : "rgb(31, 120, 193)",
                  "full" : false
               },
               "id" : 14,
               "links" : [],
               "mappingTypes" : [
                  {
                     "value" : 1,
                     "name" : "value to text"
                  },
                  {
                     "value" : 2,
                     "name" : "range to text"
                  }
               ],
               "rangeMaps" : [
                  {
                     "to" : "null",
                     "text" : "N/A",
                     "from" : "null"
                  }
               ],
               "prefixFontSize" : "50%",
               "interval" : null,
               "type" : "singlestat",
               "title" : "FCP Receive MB/s",
               "span" : 3,
               "valueName" : "avg",
               "colorBackground" : false,
               "thresholds" : "",
               "colors" : [
                  "rgba(71, 212, 59, 0.4)",
                  "rgba(245, 150, 40, 0.73)",
                  "rgba(225, 40, 40, 0.59)"
               ],
               "valueMaps" : [
                  {
                     "value" : "null",
                     "text" : "N/A",
                     "op" : "="
                  }
               ],
               "error" : false,
               "postfixFontSize" : "50%",
               "targets" : [
                  {
                     "target" : "sumSeries(highestAverage(netapp.perf.$Group.$Cluster.node.$Node.fcp_port.$Port.write_data, $TopResources))",
                     "refId" : "A"
                  }
               ],
               "cacheTimeout" : null,
               "datasource" : null,
               "mappingType" : 1,
               "gauge" : {
                  "show" : false,
                  "minValue" : 0,
                  "thresholdMarkers" : true,
                  "thresholdLabels" : false,
                  "maxValue" : 100
               },
               "format" : "none",
               "editable" : true,
               "nullText" : null,
               "colorValue" : false,
               "nullPointMode" : "connected",
               "prefix" : ""
            }
         ],
         "repeat" : null,
         "title" : "Highlights"
      },
      {
         "titleSize" : "h6",
         "repeatRowId" : null,
         "repeatIteration" : null,
         "height" : "250px",
         "showTitle" : true,
         "collapse" : true,
         "panels" : [
            {
               "scroll" : false,
               "maxDataPoints" : "auto",
               "error" : false,
               "id" : 16,
               "links" : [],
               "targets" : [
                  {
                     "target" : "aliasByNode(highestAverage(netapp.perf.$Group.$Cluster.node.$Node.eth_port.$Port.tx_bytes_per_sec, $TopResources), 5, 7)",
                     "textEditor" : false,
                     "refId" : "A"
                  }
               ],
               "transform" : "timeseries_aggregations",
               "fontSize" : "100%",
               "styles" : [
                  {
                     "pattern" : "Time",
                     "type" : "date",
                     "dateFormat" : "YYYY-MM-DD HH:mm:ss"
                  },
                  {
                     "colorMode" : null,
                     "unit" : "MBs",
                     "pattern" : "/.*/",
                     "type" : "number",
                     "thresholds" : [
                        ""
                     ],
                     "decimals" : 0,
                     "colors" : [
                        "rgba(71, 212, 59, 0.4)",
                        "rgba(245, 150, 40, 0.73)",
                        "rgba(225, 40, 40, 0.59)"
                     ]
                  }
               ],
               "pageSize" : 5,
               "showHeader" : true,
               "sort" : {
                  "desc" : true,
                  "col" : 1
               },
               "editable" : true,
               "columns" : [
                  {
                     "value" : "avg",
                     "text" : "Avg"
                  }
               ],
               "type" : "table",
               "span" : 3,
               "title" : "Ethernet Send MB/s"
            },
            {
               "scroll" : false,
               "maxDataPoints" : "auto",
               "error" : false,
               "id" : 17,
               "links" : [],
               "targets" : [
                  {
                     "target" : "aliasByNode(highestAverage(netapp.perf.$Group.$Cluster.node.$Node.eth_port.$Port.rx_bytes_per_sec, $TopResources), 5, 7)",
                     "textEditor" : false,
                     "refId" : "A"
                  }
               ],
               "transform" : "timeseries_aggregations",
               "fontSize" : "100%",
               "styles" : [
                  {
                     "pattern" : "Time",
                     "type" : "date",
                     "dateFormat" : "YYYY-MM-DD HH:mm:ss"
                  },
                  {
                     "colorMode" : null,
                     "unit" : "MBs",
                     "pattern" : "/.*/",
                     "type" : "number",
                     "thresholds" : [
                        ""
                     ],
                     "decimals" : 0,
                     "colors" : [
                        "rgba(71, 212, 59, 0.4)",
                        "rgba(245, 150, 40, 0.73)",
                        "rgba(225, 40, 40, 0.59)"
                     ]
                  }
               ],
               "pageSize" : 5,
               "showHeader" : true,
               "sort" : {
                  "desc" : true,
                  "col" : 1
               },
               "editable" : true,
               "columns" : [
                  {
                     "value" : "avg",
                     "text" : "Avg"
                  }
               ],
               "type" : "table",
               "span" : 3,
               "title" : "Ethernet Receive MB/s"
            },
            {
               "scroll" : false,
               "maxDataPoints" : "auto",
               "error" : false,
               "id" : 18,
               "links" : [],
               "targets" : [
                  {
                     "target" : "aliasByNode(highestAverage(netapp.perf.$Group.$Cluster.node.$Node.fcp_port.$Port.read_data, $TopResources), 5, 7)",
                     "textEditor" : false,
                     "refId" : "A"
                  }
               ],
               "transform" : "timeseries_aggregations",
               "fontSize" : "100%",
               "styles" : [
                  {
                     "pattern" : "Time",
                     "type" : "date",
                     "dateFormat" : "YYYY-MM-DD HH:mm:ss"
                  },
                  {
                     "colorMode" : null,
                     "unit" : "MBs",
                     "pattern" : "/.*/",
                     "type" : "number",
                     "thresholds" : [
                        ""
                     ],
                     "decimals" : 0,
                     "colors" : [
                        "rgba(71, 212, 59, 0.4)",
                        "rgba(245, 150, 40, 0.73)",
                        "rgba(225, 40, 40, 0.59)"
                     ]
                  }
               ],
               "pageSize" : 5,
               "showHeader" : true,
               "sort" : {
                  "desc" : true,
                  "col" : 1
               },
               "editable" : true,
               "columns" : [
                  {
                     "value" : "avg",
                     "text" : "Avg"
                  }
               ],
               "type" : "table",
               "span" : 3,
               "title" : "FCP Send MB/s"
            },
            {
               "scroll" : false,
               "maxDataPoints" : "auto",
               "error" : false,
               "id" : 19,
               "links" : [],
               "targets" : [
                  {
                     "target" : "aliasByNode(highestAverage(netapp.perf.$Group.$Cluster.node.$Node.fcp_port.$Port.write_data, $TopResources), 5, 7)",
                     "textEditor" : false,
                     "refId" : "A"
                  }
               ],
               "transform" : "timeseries_aggregations",
               "fontSize" : "100%",
               "styles" : [
                  {
                     "pattern" : "Time",
                     "type" : "date",
                     "dateFormat" : "YYYY-MM-DD HH:mm:ss"
                  },
                  {
                     "colorMode" : null,
                     "unit" : "MBs",
                     "pattern" : "/.*/",
                     "type" : "number",
                     "thresholds" : [
                        ""
                     ],
                     "decimals" : 0,
                     "colors" : [
                        "rgba(71, 212, 59, 0.4)",
                        "rgba(245, 150, 40, 0.73)",
                        "rgba(225, 40, 40, 0.59)"
                     ]
                  }
               ],
               "pageSize" : 5,
               "showHeader" : true,
               "sort" : {
                  "desc" : true,
                  "col" : 1
               },
               "editable" : true,
               "columns" : [
                  {
                     "value" : "avg",
                     "text" : "Avg"
                  }
               ],
               "type" : "table",
               "span" : 3,
               "title" : "FCP Receive MB/s"
            }
         ],
         "repeat" : null,
         "title" : "Port Table Drilldown"
      },
      {
         "titleSize" : "h6",
         "repeatRowId" : null,
         "repeatIteration" : null,
         "height" : "302px",
         "showTitle" : true,
         "collapse" : true,
         "panels" : [
            {
               "timeFrom" : null,
               "xaxis" : {
                  "show" : true,
                  "mode" : "time",
                  "name" : null,
                  "buckets" : null,
                  "values" : []
               },
               "spaceLength" : 10,
               "points" : false,
               "dashLength" : 10,
               "id" : 8,
               "renderer" : "flot",
               "links" : [],
               "stack" : false,
               "legend" : {
                  "rightSide" : true,
                  "show" : true,
                  "min" : false,
                  "avg" : true,
                  "max" : true,
                  "values" : true,
                  "total" : false,
                  "alignAsTable" : true,
                  "current" : false
               },
               "percentage" : false,
               "aliasColors" : {},
               "annotate" : {
                  "enable" : false
               },
               "pointradius" : 5,
               "timeShift" : null,
               "seriesOverrides" : [],
               "scale" : 1,
               "resolution" : 100,
               "type" : "graph",
               "title" : "Send Throughput",
               "span" : 6,
               "bars" : false,
               "lines" : true,
               "steppedLine" : false,
               "thresholds" : [],
               "tooltip" : {
                  "value_type" : "individual",
                  "shared" : true,
                  "query_as_alias" : true,
                  "sort" : 0,
                  "msResolution" : true
               },
               "fill" : 1,
               "error" : false,
               "targets" : [
                  {
                     "target" : "aliasByNode(sortByMaxima(highestAverage(netapp.perf.$Group.$Cluster.node.$Node.eth_port.$Port.tx_bytes_per_sec, $TopResources)), 5, 7)",
                     "refId" : "A"
                  }
               ],
               "yaxes" : [
                  {
                     "show" : true,
                     "format" : "none",
                     "min" : null,
                     "max" : null,
                     "label" : "MB/s",
                     "logBase" : 1
                  },
                  {
                     "show" : true,
                     "format" : "short",
                     "min" : null,
                     "max" : null,
                     "logBase" : 1
                  }
               ],
               "grid" : {},
               "dashes" : false,
               "datasource" : null,
               "zerofill" : true,
               "linewidth" : 2,
               "editable" : true,
               "nullPointMode" : "connected"
            },
            {
               "timeFrom" : null,
               "xaxis" : {
                  "show" : true,
                  "mode" : "time",
                  "name" : null,
                  "buckets" : null,
                  "values" : []
               },
               "spaceLength" : 10,
               "points" : false,
               "dashLength" : 10,
               "id" : 1,
               "renderer" : "flot",
               "links" : [],
               "stack" : false,
               "legend" : {
                  "rightSide" : true,
                  "show" : true,
                  "min" : false,
                  "avg" : true,
                  "max" : true,
                  "values" : true,
                  "total" : false,
                  "alignAsTable" : true,
                  "current" : false
               },
               "percentage" : false,
               "aliasColors" : {},
               "annotate" : {
                  "enable" : false
               },
               "pointradius" : 5,
               "timeShift" : null,
               "seriesOverrides" : [],
               "scale" : 1,
               "resolution" : 100,
               "type" : "graph",
               "title" : "Receive Throughput",
               "span" : 6,
               "bars" : false,
               "lines" : true,
               "steppedLine" : false,
               "thresholds" : [],
               "tooltip" : {
                  "value_type" : "individual",
                  "shared" : true,
                  "query_as_alias" : true,
                  "sort" : 0,
                  "msResolution" : true
               },
               "fill" : 1,
               "error" : false,
               "targets" : [
                  {
                     "target" : "aliasByNode(sortByMaxima(highestAverage(netapp.perf.$Group.$Cluster.node.$Node.eth_port.$Port.rx_bytes_per_sec, $TopResources)), 5, 7)",
                     "refId" : "A"
                  }
               ],
               "yaxes" : [
                  {
                     "show" : true,
                     "format" : "none",
                     "min" : null,
                     "max" : null,
                     "label" : "MB/s",
                     "logBase" : 1
                  },
                  {
                     "show" : true,
                     "format" : "short",
                     "min" : null,
                     "max" : null,
                     "logBase" : 1
                  }
               ],
               "grid" : {},
               "dashes" : false,
               "datasource" : null,
               "zerofill" : true,
               "linewidth" : 2,
               "editable" : true,
               "nullPointMode" : "connected"
            },
            {
               "timeFrom" : null,
               "xaxis" : {
                  "show" : true,
                  "mode" : "time",
                  "name" : null,
                  "buckets" : null,
                  "values" : []
               },
               "spaceLength" : 10,
               "points" : false,
               "dashLength" : 10,
               "id" : 10,
               "renderer" : "flot",
               "links" : [],
               "stack" : false,
               "legend" : {
                  "rightSide" : true,
                  "show" : true,
                  "min" : false,
                  "avg" : true,
                  "max" : true,
                  "values" : true,
                  "total" : false,
                  "alignAsTable" : true,
                  "current" : false
               },
               "percentage" : false,
               "aliasColors" : {},
               "annotate" : {
                  "enable" : false
               },
               "pointradius" : 5,
               "timeShift" : null,
               "seriesOverrides" : [],
               "scale" : 1,
               "resolution" : 100,
               "type" : "graph",
               "title" : "Top Link Utilization Percent",
               "span" : 12,
               "bars" : false,
               "lines" : true,
               "steppedLine" : false,
               "thresholds" : [
                  {
                     "fillColor" : "rgba(216, 200, 27, 0.27)",
                     "colorMode" : "custom",
                     "fill" : true,
                     "value" : 60,
                     "op" : "gt"
                  },
                  {
                     "fillColor" : "rgba(234, 112, 112, 0.22)",
                     "colorMode" : "custom",
                     "fill" : true,
                     "value" : 80,
                     "op" : "gt"
                  }
               ],
               "tooltip" : {
                  "value_type" : "individual",
                  "shared" : true,
                  "query_as_alias" : true,
                  "sort" : 0,
                  "msResolution" : false
               },
               "fill" : 0,
               "error" : false,
               "targets" : [
                  {
                     "target" : "aliasByNode(sortByMaxima(highestAverage(netapp.perf.$Group.$Cluster.node.$Node.eth_port.$Port.link_pct_util, $TopResources)), 5, 7)",
                     "refId" : "A"
                  }
               ],
               "yaxes" : [
                  {
                     "show" : true,
                     "format" : "percent",
                     "min" : 0,
                     "max" : 100,
                     "label" : "",
                     "logBase" : 1
                  },
                  {
                     "show" : true,
                     "format" : "short",
                     "min" : null,
                     "max" : null,
                     "logBase" : 1
                  }
               ],
               "grid" : {},
               "dashes" : false,
               "datasource" : null,
               "zerofill" : true,
               "linewidth" : 2,
               "editable" : true,
               "nullPointMode" : "connected"
            }
         ],
         "repeat" : null,
         "title" : "Ethernet Drilldown"
      },
      {
         "titleSize" : "h6",
         "repeatRowId" : null,
         "repeatIteration" : null,
         "height" : "302px",
         "showTitle" : true,
         "collapse" : true,
         "panels" : [
            {
               "timeFrom" : null,
               "xaxis" : {
                  "show" : true,
                  "mode" : "time",
                  "name" : null,
                  "buckets" : null,
                  "values" : []
               },
               "spaceLength" : 10,
               "points" : false,
               "dashLength" : 10,
               "id" : 6,
               "renderer" : "flot",
               "links" : [],
               "stack" : false,
               "legend" : {
                  "rightSide" : true,
                  "show" : true,
                  "min" : false,
                  "avg" : true,
                  "max" : true,
                  "values" : true,
                  "total" : false,
                  "alignAsTable" : true,
                  "current" : false
               },
               "percentage" : false,
               "aliasColors" : {},
               "annotate" : {
                  "enable" : false
               },
               "pointradius" : 5,
               "timeShift" : null,
               "seriesOverrides" : [],
               "scale" : 1,
               "resolution" : 100,
               "type" : "graph",
               "title" : "Send Throughput",
               "span" : 6,
               "bars" : false,
               "lines" : true,
               "steppedLine" : false,
               "thresholds" : [],
               "tooltip" : {
                  "value_type" : "individual",
                  "shared" : true,
                  "query_as_alias" : true,
                  "sort" : 0,
                  "msResolution" : true
               },
               "fill" : 1,
               "error" : false,
               "targets" : [
                  {
                     "target" : "aliasByNode(highestAverage(netapp.perf.$Group.$Cluster.node.$Node.fcp_port.$Port.read_data, $TopResources), 5, 7)",
                     "refId" : "A"
                  }
               ],
               "yaxes" : [
                  {
                     "show" : true,
                     "format" : "none",
                     "min" : null,
                     "max" : null,
                     "label" : "MB/s",
                     "logBase" : 1
                  },
                  {
                     "show" : true,
                     "format" : "short",
                     "min" : null,
                     "max" : null,
                     "logBase" : 1
                  }
               ],
               "grid" : {},
               "dashes" : false,
               "datasource" : null,
               "zerofill" : true,
               "linewidth" : 2,
               "editable" : true,
               "nullPointMode" : "connected"
            },
            {
               "timeFrom" : null,
               "xaxis" : {
                  "show" : true,
                  "mode" : "time",
                  "name" : null,
                  "buckets" : null,
                  "values" : []
               },
               "spaceLength" : 10,
               "points" : false,
               "dashLength" : 10,
               "id" : 9,
               "renderer" : "flot",
               "links" : [],
               "stack" : false,
               "legend" : {
                  "rightSide" : true,
                  "show" : true,
                  "min" : false,
                  "avg" : true,
                  "max" : true,
                  "values" : true,
                  "total" : false,
                  "alignAsTable" : true,
                  "current" : false
               },
               "percentage" : false,
               "aliasColors" : {},
               "annotate" : {
                  "enable" : false
               },
               "pointradius" : 5,
               "timeShift" : null,
               "seriesOverrides" : [],
               "scale" : 1,
               "resolution" : 100,
               "type" : "graph",
               "title" : "Receive Throughput",
               "span" : 6,
               "bars" : false,
               "lines" : true,
               "steppedLine" : false,
               "thresholds" : [],
               "tooltip" : {
                  "value_type" : "individual",
                  "shared" : true,
                  "query_as_alias" : true,
                  "sort" : 0,
                  "msResolution" : true
               },
               "fill" : 1,
               "error" : false,
               "targets" : [
                  {
                     "target" : "aliasByNode(highestAverage(netapp.perf.$Group.$Cluster.node.$Node.fcp_port.$Port.write_data, $TopResources), 5, 7)",
                     "refId" : "A"
                  }
               ],
               "yaxes" : [
                  {
                     "show" : true,
                     "format" : "none",
                     "min" : null,
                     "max" : null,
                     "label" : "MB/s",
                     "logBase" : 1
                  },
                  {
                     "show" : true,
                     "format" : "short",
                     "min" : null,
                     "max" : null,
                     "logBase" : 1
                  }
               ],
               "grid" : {},
               "dashes" : false,
               "datasource" : null,
               "zerofill" : true,
               "linewidth" : 2,
               "editable" : true,
               "nullPointMode" : "connected"
            }
         ],
         "repeat" : null,
         "title" : "Fibre Channel Drilldown"
      }
   ],
   "timepicker" : {
      "enable" : true,
      "status" : "Stable",
      "refresh_intervals" : [
         "1m",
         "5m",
         "15m",
         "30m",
         "1h",
         "2h",
         "1d"
      ],
      "time_options" : [
         "15m",
         "1h",
         "6h",
         "12h",
         "24h",
         "2d",
         "7d",
         "30d",
         "180d",
         "1y",
         "2y"
      ],
      "notice" : false,
      "now" : true,
      "collapse" : false,
      "type" : "timepicker"
   },
   "graphTooltip" : 1,
   "refresh" : false,
   "hideControls" : false,
   "id" : 18,
   "links" : [
      {
         "icon" : "external link",
         "includeVars" : true,
         "type" : "dashboards",
         "title" : "Related Dashboards",
         "keepTime" : true,
         "tags" : [
            "NetAppHarvest"
         ],
         "asDropdown" : true
      }
   ],
   "timezone" : "browser",
   "version" : 3,
   "style" : "dark",
   "templating" : {
      "enable" : true,
      "list" : [
         {
            "includeAll" : false,
            "allFormat" : "glob",
            "refresh" : 1,
            "tagsQuery" : "",
            "allValue" : null,
            "query" : "netapp.perf.*",
            "refresh_on_load" : false,
            "name" : "Group",
            "datasource" : null,
            "tags" : [],
            "sort" : 0,
            "useTags" : false,
            "hide" : 0,
            "regex" : "",
            "tagValuesQuery" : "",
            "type" : "query",
            "multi" : false,
            "label" : null
         },
         {
            "includeAll" : true,
            "allFormat" : "wildcard",
            "refresh" : 1,
            "tagsQuery" : "",
            "allValue" : null,
            "query" : "netapp.perf.$Group.*",
            "refresh_on_load" : false,
            "name" : "Cluster",
            "datasource" : null,
            "tags" : [],
            "sort" : 0,
            "useTags" : false,
            "hide" : 0,
            "regex" : "",
            "tagValuesQuery" : "",
            "type" : "query",
            "multi" : true,
            "label" : null,
            "multiFormat" : "glob"
         },
         {
            "includeAll" : true,
            "allFormat" : "wildcard",
            "refresh" : 1,
            "tagsQuery" : "",
            "allValue" : null,
            "query" : "netapp.perf.$Group.$Cluster.node.*",
            "refresh_on_load" : false,
            "name" : "Node",
            "datasource" : null,
            "tags" : [],
            "sort" : 0,
            "useTags" : false,
            "hide" : 0,
            "regex" : "",
            "tagValuesQuery" : "",
            "type" : "query",
            "multi" : true,
            "label" : null,
            "multiFormat" : "glob"
         },
         {
            "includeAll" : true,
            "allFormat" : "wildcard",
            "refresh" : 1,
            "tagsQuery" : "",
            "allValue" : null,
            "query" : "netapp.perf.$Group.$Cluster.node.$Node.{eth_port,fcp_port}.*",
            "refresh_on_load" : false,
            "name" : "Port",
            "datasource" : null,
            "tags" : [],
            "sort" : 0,
            "useTags" : false,
            "hide" : 0,
            "regex" : "",
            "tagValuesQuery" : "",
            "type" : "query",
            "multi" : true,
            "label" : null,
            "multiFormat" : "glob"
         },
         {
            "includeAll" : false,
            "options" : [
               {
                  "value" : "1",
                  "text" : "1",
                  "selected" : false
               },
               {
                  "value" : "2",
                  "text" : "2",
                  "selected" : false
               },
               {
                  "value" : "3",
                  "text" : "3",
                  "selected" : false
               },
               {
                  "value" : "4",
                  "text" : "4",
                  "selected" : false
               },
               {
                  "value" : "5",
                  "text" : "5",
                  "selected" : true
               },
               {
                  "value" : "6",
                  "text" : "6",
                  "selected" : false
               },
               {
                  "value" : "8",
                  "text" : "8",
                  "selected" : false
               },
               {
                  "value" : "10",
                  "text" : "10",
                  "selected" : false
               },
               {
                  "value" : "15",
                  "text" : "15",
                  "selected" : false
               },
               {
                  "value" : "20",
                  "text" : "20",
                  "selected" : false
               },
               {
                  "value" : "40",
                  "text" : "40",
                  "selected" : false
               }
            ],
            "refresh_on_load" : false,
            "query" : "1,2,3,4,5,6,8,10,15,20,40",
            "allValue" : null,
            "name" : "TopResources",
            "datasource" : null,
            "allFormat" : "glob",
            "refresh" : 0,
            "hide" : 0,
            "current" : {
               "value" : "5",
               "text" : "5",
               "selected" : true
            },
            "type" : "custom",
            "label" : "",
            "multi" : false
         }
      ]
   },
   "annotations" : {
      "enable" : false,
      "list" : []
   },
   "tags" : [
      "NetAppHarvest"
   ],
   "schemaVersion" : 14,
   "gnetId" : null,
   "editable" : true,
   "title" : "NetApp Detail: Network Port"
}
