{ "name": "test", "status": "active", "createdAt": 1516665086822 }
{ "name": "test", "status": "active", "createdAt": 1516665086823 }
{ "name": "test", "status": "active", "createdAt": 1516665086824 }
{ "name": "test", "status": "inactive", "createdAt": 1516665086826 }
{ "name": "test", "status": "inactive", "createdAt": 1516665086829 }
{ "name": "test", "status": "inactive", "createdAt": 1516665086827 }
{ "name": "test", "status": "inactive", "createdAt": 1516665086831 }
{ "name": "test", "status": "inactive", "createdAt": 1516665086842 }
{ "name": "test", "status": "active", "createdAt": 1516665086845 }
{ "name": "test", "status": "active", "createdAt": 1516665086866 }
{ "name": "test", "status": "inactive", "createdAt": 1516665086902 }
{ "name": "test", "status": "inactive", "createdAt": 1516665086920 }
{ "name": "test", "status": "active", "createdAt": 1516665086866 }
{ "name": "test", "status": "inactive", "createdAt": 1516665086867 }
{ "name": "test", "status": "inactive", "createdAt": 1516665086889 }
{ "name": "test", "status": "active", "createdAt": 1516665086920 }
{ "name": "test", "status": "active", "createdAt": 1516665087812 }
{ "name": "test", "status": "inactive", "createdAt": 1516665086913 }
{ "name": "test", "status": "active", "createdAt": 1516665086824 }
